{
  "type": "service_account",
  "project_id": "***book-5a408",
  "private_key_id": "*******************",
  "private_key": "-----BEGIN PRIVATE KEY-----\nabcdEfQ321\n**8\n****q=\n-----END PRIVATE KEY-----\n",
  "client_email": "firebase-adminsdk-s*****@***book-5a408.iam.gserviceaccount.com",
  "client_id": "*****************",
  "auth_uri": "https://accounts.google.com/o/oauth2/auth",
  "token_uri": "https://oauth2.googleapis.com/token",
  "auth_provider_x509_cert_url": "https://www.googleapis.com/oauth2/v1/certs",
  "client_x509_cert_url": "https://www.googleapis.com/robot/v1/metadata/x509/firebase-adminsdk-s*******book-5a408.iam.gserviceaccount.com"
}